{
  "biomes": "minecraft:desert",
  "adapt_noise": false,
  "spawn_overrides": {},
  "type": "minecraft:jigsaw",
  "start_pool": "cobblemon:ruins/desert_ruins_houses",
  "size": 7,
  "step": "underground_decoration",
  "start_height": {
    "absolute": -5
  },
  "project_start_to_heightmap": "WORLD_SURFACE_WG",
  "max_distance_from_center": 100,
  "terrain_adaptation": "none",
  "use_expansion_hack": false
}