{
  "name": "cobblemon:jungle_fossils_pit",
  "fallback": "minecraft:empty",
  "elements": [
    {
      "weight": 1,
      "element": {
        "location": "cobblemon:fossils/jungle/surface/pit",
        "element_type": "minecraft:single_pool_element",
        "processors": "cobblemon:jungle_fossils_pit",
        "projection": "rigid"
      }
    }
  ]
}