{
    "type": "minecraft:crafting_shaped",
    "pattern": [
        "III",
        "GTG",
        "GCG"
    ],
    "key": {
        "I": {
            "item": "minecraft:iron_ingot"
        },
        "G": {
            "item": "minecraft:glass"
        },
        "T": {
            "item": "minecraft:ghast_tear"
        },
        "C": {
            "item": "minecraft:composter"
        }
    },
    "result": {
        "item": "cobblemon:fossil_tube"
    }
}