{
  "placement": {
    "type": "minecraft:random_spread",
    "spacing": 20,
    "separation": 10,
    "salt": 1695780712,
    "spread_type": "triangular"
  },
  "structures": [
    {
      "structure": "cobblemon:jungle_fossils_pit",
      "weight": 1
    }
  ]
}